\relax 
\providecommand\hyper@newdestlabel[2]{}
\providecommand\HyperFirstAtBeginDocument{\AtBeginDocument}
\HyperFirstAtBeginDocument{\ifx\hyper@anchor\@undefined
\global\let\oldcontentsline\contentsline
\gdef\contentsline#1#2#3#4{\oldcontentsline{#1}{#2}{#3}}
\global\let\oldnewlabel\newlabel
\gdef\newlabel#1#2{\newlabelxx{#1}#2}
\gdef\newlabelxx#1#2#3#4#5#6{\oldnewlabel{#1}{{#2}{#3}}}
\AtEndDocument{\ifx\hyper@anchor\@undefined
\let\contentsline\oldcontentsline
\let\newlabel\oldnewlabel
\fi}
\fi}
\global\let\hyper@last\relax 
\gdef\HyperFirstAtBeginDocument#1{#1}
\providecommand\HyField@AuxAddToFields[1]{}
\providecommand\HyField@AuxAddToCoFields[2]{}
\@writefile{toc}{\contentsline {section}{\numberline {1}Introduction}{3}{section.1}}
\@writefile{toc}{\contentsline {section}{\numberline {2}Getting Set Up}{3}{section.2}}
\@writefile{toc}{\contentsline {section}{\numberline {3}The Program}{3}{section.3}}
\@writefile{toc}{\contentsline {subsection}{\numberline {3.1}Starting Out}{3}{subsection.3.1}}
\@writefile{toc}{\contentsline {subsubsection}{\numberline {3.1.1}Includes}{3}{subsubsection.3.1.1}}
\@writefile{toc}{\contentsline {subsubsection}{\numberline {3.1.2}The Main Method}{4}{subsubsection.3.1.2}}
\@writefile{toc}{\contentsline {subsubsection}{\numberline {3.1.3}The Variables}{4}{subsubsection.3.1.3}}
\@writefile{toc}{\contentsline {subsubsection}{\numberline {3.1.4}Reading in the Number}{4}{subsubsection.3.1.4}}
\@writefile{toc}{\contentsline {subsection}{\numberline {3.2}The Fibonacci Function}{5}{subsection.3.2}}
\@writefile{toc}{\contentsline {subsubsection}{\numberline {3.2.1}Back to the Top}{5}{subsubsection.3.2.1}}
\@writefile{toc}{\contentsline {subsection}{\numberline {3.3}The Actual Fibonacci Function}{5}{subsection.3.3}}
\@writefile{toc}{\contentsline {subsubsection}{\numberline {3.3.1}Fibonacci's Variables}{5}{subsubsection.3.3.1}}
\@writefile{toc}{\contentsline {subsubsection}{\numberline {3.3.2}Loop Logic}{6}{subsubsection.3.3.2}}
\@writefile{toc}{\contentsline {subsubsection}{\numberline {3.3.3}If's and Else's}{6}{subsubsection.3.3.3}}
\@writefile{toc}{\contentsline {section}{\numberline {4}The Conclusion}{7}{section.4}}
